{
    "dishes": [
      {
        "id": "0",
        "title": "Kartoffelbrei mit Rührei und Röst-Zwiebeln",
        "description": "",
        "season": "A",
        "dateAdded": "20210727",
        "imageBytes": "",
        "imageUrl": "",
        "imagePath": ""
      },
      {
        "id": "1",
        "title": "Rouladen  ",
        "description": "",
        "season": "W",
        "dateAdded": "20210727",
        "imageBytes": "",
        "imageUrl": "",
        "imagePath": ""
      },
      {
        "id": "2",
        "title": "Bohnen-Feta-Salat",
        "description": "",
        "season": "A",
        "dateAdded": "20210727",
        "imageBytes": "",
        "imageUrl": "",
        "imagePath": ""
      },
      {
        "id": "3",
        "title": "Schupfnudeln mit scharfer Tomaten-Paprika-Soße",
        "description": "",
        "season": "A",
        "dateAdded": "20210727",
        "imageBytes": "",
        "imageUrl": "",
        "imagePath": ""
      },
      {
        "id": "4",
        "title": "Pfannenkuchen mit Salat ",
        "description": "",
        "season": "A",
        "dateAdded": "20210727",
        "imageBytes": "",
        "imageUrl": "",
        "imagePath": ""
      },
      {
        "id": "5",
        "title": "Nudelpfanne mit Paprika und Zucchini",
        "description": "",
        "season": "A",
        "dateAdded": "20210727",
        "imageBytes": "",
        "imageUrl": "",
        "imagePath": ""
      },
      {
        "id": "6",
        "title": "Linsengemüse mit Spätzle",
        "description": "",
        "season": "A",
        "dateAdded": "20210727",
        "imageBytes": "",
        "imageUrl": "",
        "imagePath": ""
      },
      {
        "id": "7",
        "title": "Zucchini-Schiffchen mit Kartoffel-Paprika-Feta-Masse",
        "description": "",
        "season": "S",
        "dateAdded": "20210727",
        "imageBytes": "",
        "imageUrl": "",
        "imagePath": ""
      },
      {
        "id": "8",
        "title": "Vegetarischer Nudelauflauf ",
        "description": "",
        "season": "A",
        "dateAdded": "20210727",
        "imageBytes": "",
        "imageUrl": "",
        "imagePath": ""
      },
      {
        "id": "9",
        "title": "Gebratene Spaghetti mit Ei und Tomate",
        "description": "",
        "season": "A",
        "dateAdded": "20210727",
        "imageBytes": "",
        "imageUrl": "",
        "imagePath": ""
      },
      {
        "id": "10",
        "title": "Kartoffelsuppe",
        "description": "",
        "season": "W",
        "dateAdded": "20210727",
        "imageBytes": "",
        "imageUrl": "",
        "imagePath": ""
      },
      {
        "id": "11",
        "title": "Kaiserschmarrn",
        "description": "",
        "season": "A",
        "dateAdded": "20210727",
        "imageBytes": "",
        "imageUrl": "",
        "imagePath": ""
      },
      {
        "id": "12",
        "title": "Falafel-Bällchen",
        "description": "",
        "season": "A",
        "dateAdded": "20210727",
        "imageBytes": "",
        "imageUrl": "",
        "imagePath": ""
      }
    ]
  }